-- Merging decision tree log ---
provider#android.support.v4.content.FileProvider
INJECTED from /Users/gyuhyeokhong/Documents/source/git/pms/pms_gapyeong/app/src/main/AndroidManifest.xml:165:9-173:20
	android:grantUriPermissions
		ADDED from /Users/gyuhyeokhong/Documents/source/git/pms/pms_gapyeong/app/src/main/AndroidManifest.xml:169:13-47
	android:authorities
		INJECTED from /Users/gyuhyeokhong/Documents/source/git/pms/pms_gapyeong/app/src/main/AndroidManifest.xml
		ADDED from /Users/gyuhyeokhong/Documents/source/git/pms/pms_gapyeong/app/src/main/AndroidManifest.xml:167:13-60
	android:exported
		ADDED from /Users/gyuhyeokhong/Documents/source/git/pms/pms_gapyeong/app/src/main/AndroidManifest.xml:168:13-37
	android:name
		ADDED from /Users/gyuhyeokhong/Documents/source/git/pms/pms_gapyeong/app/src/main/AndroidManifest.xml:166:13-67
manifest
ADDED from /Users/gyuhyeokhong/Documents/source/git/pms/pms_gapyeong/app/src/main/AndroidManifest.xml:2:1-176:12
INJECTED from /Users/gyuhyeokhong/Documents/source/git/pms/pms_gapyeong/app/src/main/AndroidManifest.xml:2:1-176:12
INJECTED from /Users/gyuhyeokhong/Documents/source/git/pms/pms_gapyeong/app/src/main/AndroidManifest.xml:2:1-176:12
INJECTED from /Users/gyuhyeokhong/Documents/source/git/pms/pms_gapyeong/app/src/main/AndroidManifest.xml:2:1-176:12
MERGED from [keona_platerecoglib.aar] /Users/gyuhyeokhong/.gradle/caches/transforms-1/files-1.1/keona_platerecoglib.aar/cb91620d024785680ecbbbf4b5752400/AndroidManifest.xml:2:1-19:12
MERGED from [com.android.support:design:26.1.0] /Users/gyuhyeokhong/.gradle/caches/transforms-1/files-1.1/design-26.1.0.aar/5a98cab10971ae94821d54219f5ba588/AndroidManifest.xml:17:1-31:12
MERGED from [gun0912.ted:tedpermission:2.2.2] /Users/gyuhyeokhong/.gradle/caches/transforms-1/files-1.1/tedpermission-2.2.2.aar/f0d5a2cbd1b5ac688ad8b4a0a4d60907/AndroidManifest.xml:2:1-17:12
MERGED from [com.android.support:appcompat-v7:26.1.0] /Users/gyuhyeokhong/.gradle/caches/transforms-1/files-1.1/appcompat-v7-26.1.0.aar/b35ce678baf6b664d5b51ddb5262606d/AndroidManifest.xml:17:1-31:12
MERGED from [com.android.support:animated-vector-drawable:26.1.0] /Users/gyuhyeokhong/.gradle/caches/transforms-1/files-1.1/animated-vector-drawable-26.1.0.aar/00887c80658c6a50e4129d99c9a4a69b/AndroidManifest.xml:17:1-28:12
MERGED from [com.android.support:support-vector-drawable:26.1.0] /Users/gyuhyeokhong/.gradle/caches/transforms-1/files-1.1/support-vector-drawable-26.1.0.aar/4ff2b1520e0a36b910961f056679e95b/AndroidManifest.xml:17:1-28:12
MERGED from [com.android.support:recyclerview-v7:26.1.0] /Users/gyuhyeokhong/.gradle/caches/transforms-1/files-1.1/recyclerview-v7-26.1.0.aar/515c04573d77dc5581872137c2bc7f86/AndroidManifest.xml:17:1-28:12
MERGED from [com.android.support:transition:26.1.0] /Users/gyuhyeokhong/.gradle/caches/transforms-1/files-1.1/transition-26.1.0.aar/c6ee451d289c6205149413aa822e8c16/AndroidManifest.xml:17:1-28:12
MERGED from [com.android.support:support-v4:26.1.0] /Users/gyuhyeokhong/.gradle/caches/transforms-1/files-1.1/support-v4-26.1.0.aar/5acf7bad9d5fef84547104a6cf74daf5/AndroidManifest.xml:17:1-31:12
MERGED from [com.android.support:support-media-compat:26.1.0] /Users/gyuhyeokhong/.gradle/caches/transforms-1/files-1.1/support-media-compat-26.1.0.aar/1bd6291fe87df21407d596554aba9d36/AndroidManifest.xml:17:1-31:12
MERGED from [com.android.support:support-fragment:26.1.0] /Users/gyuhyeokhong/.gradle/caches/transforms-1/files-1.1/support-fragment-26.1.0.aar/9e4e8aa2aaccabde1105b370db57b1ff/AndroidManifest.xml:17:1-31:12
MERGED from [com.android.support:support-core-utils:26.1.0] /Users/gyuhyeokhong/.gradle/caches/transforms-1/files-1.1/support-core-utils-26.1.0.aar/eaf929dac5522228ff8a5e8a32ac59ff/AndroidManifest.xml:17:1-31:12
MERGED from [com.android.support:support-core-ui:26.1.0] /Users/gyuhyeokhong/.gradle/caches/transforms-1/files-1.1/support-core-ui-26.1.0.aar/59f26f0ffca0d2731ca1f55877bdb635/AndroidManifest.xml:17:1-31:12
MERGED from [com.android.support:support-compat:26.1.0] /Users/gyuhyeokhong/.gradle/caches/transforms-1/files-1.1/support-compat-26.1.0.aar/68fe778b8ebac2b17e8e8d2b65949cc2/AndroidManifest.xml:17:1-31:12
MERGED from [android.arch.lifecycle:runtime:1.0.0] /Users/gyuhyeokhong/.gradle/caches/transforms-1/files-1.1/runtime-1.0.0.aar/5d75ed50bda88a6da8cfa0b4dbfa9afa/AndroidManifest.xml:17:1-30:12
INJECTED from /Users/gyuhyeokhong/Documents/source/git/pms/pms_gapyeong/app/src/main/AndroidManifest.xml:2:1-176:12
INJECTED from /Users/gyuhyeokhong/Documents/source/git/pms/pms_gapyeong/app/src/main/AndroidManifest.xml:2:1-176:12
INJECTED from /Users/gyuhyeokhong/Documents/source/git/pms/pms_gapyeong/app/src/main/AndroidManifest.xml:2:1-176:12
	package
		ADDED from /Users/gyuhyeokhong/Documents/source/git/pms/pms_gapyeong/app/src/main/AndroidManifest.xml:4:5-31
		INJECTED from /Users/gyuhyeokhong/Documents/source/git/pms/pms_gapyeong/app/src/main/AndroidManifest.xml
		INJECTED from /Users/gyuhyeokhong/Documents/source/git/pms/pms_gapyeong/app/src/main/AndroidManifest.xml
	android:versionName
		INJECTED from /Users/gyuhyeokhong/Documents/source/git/pms/pms_gapyeong/app/src/main/AndroidManifest.xml
		ADDED from /Users/gyuhyeokhong/Documents/source/git/pms/pms_gapyeong/app/src/main/AndroidManifest.xml:2:1-176:12
		INJECTED from /Users/gyuhyeokhong/Documents/source/git/pms/pms_gapyeong/app/src/main/AndroidManifest.xml
	xmlns:tools
		ADDED from /Users/gyuhyeokhong/Documents/source/git/pms/pms_gapyeong/app/src/main/AndroidManifest.xml:3:5-51
	xmlns:android
		ADDED from /Users/gyuhyeokhong/Documents/source/git/pms/pms_gapyeong/app/src/main/AndroidManifest.xml:2:11-69
	android:versionCode
		ADDED from /Users/gyuhyeokhong/Documents/source/git/pms/pms_gapyeong/app/src/main/AndroidManifest.xml:5:5-30
		INJECTED from /Users/gyuhyeokhong/Documents/source/git/pms/pms_gapyeong/app/src/main/AndroidManifest.xml
		INJECTED from /Users/gyuhyeokhong/Documents/source/git/pms/pms_gapyeong/app/src/main/AndroidManifest.xml
uses-permission#android.permission.REQUEST_INSTALL_PACKAGES
ADDED from /Users/gyuhyeokhong/Documents/source/git/pms/pms_gapyeong/app/src/main/AndroidManifest.xml:7:5-83
	android:name
		ADDED from /Users/gyuhyeokhong/Documents/source/git/pms/pms_gapyeong/app/src/main/AndroidManifest.xml:7:22-80
uses-permission#android.permission.BLUETOOTH
ADDED from /Users/gyuhyeokhong/Documents/source/git/pms/pms_gapyeong/app/src/main/AndroidManifest.xml:8:5-68
	android:name
		ADDED from /Users/gyuhyeokhong/Documents/source/git/pms/pms_gapyeong/app/src/main/AndroidManifest.xml:8:22-65
uses-permission#android.permission.BLUETOOTH_ADMIN
ADDED from /Users/gyuhyeokhong/Documents/source/git/pms/pms_gapyeong/app/src/main/AndroidManifest.xml:9:5-74
	android:name
		ADDED from /Users/gyuhyeokhong/Documents/source/git/pms/pms_gapyeong/app/src/main/AndroidManifest.xml:9:22-71
uses-permission#android.permission.ACCESS_COARSE_LOCATION
ADDED from /Users/gyuhyeokhong/Documents/source/git/pms/pms_gapyeong/app/src/main/AndroidManifest.xml:10:5-81
	android:name
		ADDED from /Users/gyuhyeokhong/Documents/source/git/pms/pms_gapyeong/app/src/main/AndroidManifest.xml:10:22-78
uses-permission#android.permission.INTERNET
ADDED from /Users/gyuhyeokhong/Documents/source/git/pms/pms_gapyeong/app/src/main/AndroidManifest.xml:11:5-67
	android:name
		ADDED from /Users/gyuhyeokhong/Documents/source/git/pms/pms_gapyeong/app/src/main/AndroidManifest.xml:11:22-64
uses-permission#android.permission.GET_TASKS
ADDED from /Users/gyuhyeokhong/Documents/source/git/pms/pms_gapyeong/app/src/main/AndroidManifest.xml:12:5-68
	android:name
		ADDED from /Users/gyuhyeokhong/Documents/source/git/pms/pms_gapyeong/app/src/main/AndroidManifest.xml:12:22-65
uses-permission#android.permission.ACCESS_NETWORK_STATE
ADDED from /Users/gyuhyeokhong/Documents/source/git/pms/pms_gapyeong/app/src/main/AndroidManifest.xml:13:5-79
	android:name
		ADDED from /Users/gyuhyeokhong/Documents/source/git/pms/pms_gapyeong/app/src/main/AndroidManifest.xml:13:22-76
uses-permission#android.permission.ACCESS_WIFI_STATE
ADDED from /Users/gyuhyeokhong/Documents/source/git/pms/pms_gapyeong/app/src/main/AndroidManifest.xml:14:5-76
	android:name
		ADDED from /Users/gyuhyeokhong/Documents/source/git/pms/pms_gapyeong/app/src/main/AndroidManifest.xml:14:22-73
uses-permission#android.permission.CHANGE_NETWORK_STATE
ADDED from /Users/gyuhyeokhong/Documents/source/git/pms/pms_gapyeong/app/src/main/AndroidManifest.xml:15:5-79
	android:name
		ADDED from /Users/gyuhyeokhong/Documents/source/git/pms/pms_gapyeong/app/src/main/AndroidManifest.xml:15:22-76
uses-permission#android.permission.CHANGE_WIFI_STATE
ADDED from /Users/gyuhyeokhong/Documents/source/git/pms/pms_gapyeong/app/src/main/AndroidManifest.xml:16:5-76
	android:name
		ADDED from /Users/gyuhyeokhong/Documents/source/git/pms/pms_gapyeong/app/src/main/AndroidManifest.xml:16:22-73
uses-permission#android.permission.READ_PHONE_STATE
ADDED from /Users/gyuhyeokhong/Documents/source/git/pms/pms_gapyeong/app/src/main/AndroidManifest.xml:17:5-75
MERGED from [keona_platerecoglib.aar] /Users/gyuhyeokhong/.gradle/caches/transforms-1/files-1.1/keona_platerecoglib.aar/cb91620d024785680ecbbbf4b5752400/AndroidManifest.xml:11:5-75
MERGED from [keona_platerecoglib.aar] /Users/gyuhyeokhong/.gradle/caches/transforms-1/files-1.1/keona_platerecoglib.aar/cb91620d024785680ecbbbf4b5752400/AndroidManifest.xml:11:5-75
	android:name
		ADDED from /Users/gyuhyeokhong/Documents/source/git/pms/pms_gapyeong/app/src/main/AndroidManifest.xml:17:22-72
uses-permission#android.permission.WRITE_EXTERNAL_STORAGE
ADDED from /Users/gyuhyeokhong/Documents/source/git/pms/pms_gapyeong/app/src/main/AndroidManifest.xml:18:5-81
	android:name
		ADDED from /Users/gyuhyeokhong/Documents/source/git/pms/pms_gapyeong/app/src/main/AndroidManifest.xml:18:22-78
uses-permission#android.permission.CAMERA
ADDED from /Users/gyuhyeokhong/Documents/source/git/pms/pms_gapyeong/app/src/main/AndroidManifest.xml:19:5-65
	android:name
		ADDED from /Users/gyuhyeokhong/Documents/source/git/pms/pms_gapyeong/app/src/main/AndroidManifest.xml:19:22-62
uses-permission#android.permission.READ_SMS
ADDED from /Users/gyuhyeokhong/Documents/source/git/pms/pms_gapyeong/app/src/main/AndroidManifest.xml:20:5-67
	android:name
		ADDED from /Users/gyuhyeokhong/Documents/source/git/pms/pms_gapyeong/app/src/main/AndroidManifest.xml:20:22-64
uses-feature#android.hardware.camera
ADDED from /Users/gyuhyeokhong/Documents/source/git/pms/pms_gapyeong/app/src/main/AndroidManifest.xml:22:5-60
	android:name
		ADDED from /Users/gyuhyeokhong/Documents/source/git/pms/pms_gapyeong/app/src/main/AndroidManifest.xml:22:19-57
uses-feature#android.hardware.camera.autofocus
ADDED from /Users/gyuhyeokhong/Documents/source/git/pms/pms_gapyeong/app/src/main/AndroidManifest.xml:23:5-70
	android:name
		ADDED from /Users/gyuhyeokhong/Documents/source/git/pms/pms_gapyeong/app/src/main/AndroidManifest.xml:23:19-67
application
ADDED from /Users/gyuhyeokhong/Documents/source/git/pms/pms_gapyeong/app/src/main/AndroidManifest.xml:26:5-174:19
MERGED from [keona_platerecoglib.aar] /Users/gyuhyeokhong/.gradle/caches/transforms-1/files-1.1/keona_platerecoglib.aar/cb91620d024785680ecbbbf4b5752400/AndroidManifest.xml:13:5-17:19
MERGED from [keona_platerecoglib.aar] /Users/gyuhyeokhong/.gradle/caches/transforms-1/files-1.1/keona_platerecoglib.aar/cb91620d024785680ecbbbf4b5752400/AndroidManifest.xml:13:5-17:19
MERGED from [com.android.support:design:26.1.0] /Users/gyuhyeokhong/.gradle/caches/transforms-1/files-1.1/design-26.1.0.aar/5a98cab10971ae94821d54219f5ba588/AndroidManifest.xml:25:5-29:19
MERGED from [com.android.support:design:26.1.0] /Users/gyuhyeokhong/.gradle/caches/transforms-1/files-1.1/design-26.1.0.aar/5a98cab10971ae94821d54219f5ba588/AndroidManifest.xml:25:5-29:19
MERGED from [gun0912.ted:tedpermission:2.2.2] /Users/gyuhyeokhong/.gradle/caches/transforms-1/files-1.1/tedpermission-2.2.2.aar/f0d5a2cbd1b5ac688ad8b4a0a4d60907/AndroidManifest.xml:9:5-15:19
MERGED from [gun0912.ted:tedpermission:2.2.2] /Users/gyuhyeokhong/.gradle/caches/transforms-1/files-1.1/tedpermission-2.2.2.aar/f0d5a2cbd1b5ac688ad8b4a0a4d60907/AndroidManifest.xml:9:5-15:19
MERGED from [com.android.support:appcompat-v7:26.1.0] /Users/gyuhyeokhong/.gradle/caches/transforms-1/files-1.1/appcompat-v7-26.1.0.aar/b35ce678baf6b664d5b51ddb5262606d/AndroidManifest.xml:25:5-29:19
MERGED from [com.android.support:appcompat-v7:26.1.0] /Users/gyuhyeokhong/.gradle/caches/transforms-1/files-1.1/appcompat-v7-26.1.0.aar/b35ce678baf6b664d5b51ddb5262606d/AndroidManifest.xml:25:5-29:19
MERGED from [com.android.support:animated-vector-drawable:26.1.0] /Users/gyuhyeokhong/.gradle/caches/transforms-1/files-1.1/animated-vector-drawable-26.1.0.aar/00887c80658c6a50e4129d99c9a4a69b/AndroidManifest.xml:22:5-26:19
MERGED from [com.android.support:animated-vector-drawable:26.1.0] /Users/gyuhyeokhong/.gradle/caches/transforms-1/files-1.1/animated-vector-drawable-26.1.0.aar/00887c80658c6a50e4129d99c9a4a69b/AndroidManifest.xml:22:5-26:19
MERGED from [com.android.support:support-vector-drawable:26.1.0] /Users/gyuhyeokhong/.gradle/caches/transforms-1/files-1.1/support-vector-drawable-26.1.0.aar/4ff2b1520e0a36b910961f056679e95b/AndroidManifest.xml:22:5-26:19
MERGED from [com.android.support:support-vector-drawable:26.1.0] /Users/gyuhyeokhong/.gradle/caches/transforms-1/files-1.1/support-vector-drawable-26.1.0.aar/4ff2b1520e0a36b910961f056679e95b/AndroidManifest.xml:22:5-26:19
MERGED from [com.android.support:recyclerview-v7:26.1.0] /Users/gyuhyeokhong/.gradle/caches/transforms-1/files-1.1/recyclerview-v7-26.1.0.aar/515c04573d77dc5581872137c2bc7f86/AndroidManifest.xml:22:5-26:19
MERGED from [com.android.support:recyclerview-v7:26.1.0] /Users/gyuhyeokhong/.gradle/caches/transforms-1/files-1.1/recyclerview-v7-26.1.0.aar/515c04573d77dc5581872137c2bc7f86/AndroidManifest.xml:22:5-26:19
MERGED from [com.android.support:transition:26.1.0] /Users/gyuhyeokhong/.gradle/caches/transforms-1/files-1.1/transition-26.1.0.aar/c6ee451d289c6205149413aa822e8c16/AndroidManifest.xml:22:5-26:19
MERGED from [com.android.support:transition:26.1.0] /Users/gyuhyeokhong/.gradle/caches/transforms-1/files-1.1/transition-26.1.0.aar/c6ee451d289c6205149413aa822e8c16/AndroidManifest.xml:22:5-26:19
MERGED from [com.android.support:support-v4:26.1.0] /Users/gyuhyeokhong/.gradle/caches/transforms-1/files-1.1/support-v4-26.1.0.aar/5acf7bad9d5fef84547104a6cf74daf5/AndroidManifest.xml:25:5-29:19
MERGED from [com.android.support:support-v4:26.1.0] /Users/gyuhyeokhong/.gradle/caches/transforms-1/files-1.1/support-v4-26.1.0.aar/5acf7bad9d5fef84547104a6cf74daf5/AndroidManifest.xml:25:5-29:19
MERGED from [com.android.support:support-media-compat:26.1.0] /Users/gyuhyeokhong/.gradle/caches/transforms-1/files-1.1/support-media-compat-26.1.0.aar/1bd6291fe87df21407d596554aba9d36/AndroidManifest.xml:25:5-29:19
MERGED from [com.android.support:support-media-compat:26.1.0] /Users/gyuhyeokhong/.gradle/caches/transforms-1/files-1.1/support-media-compat-26.1.0.aar/1bd6291fe87df21407d596554aba9d36/AndroidManifest.xml:25:5-29:19
MERGED from [com.android.support:support-fragment:26.1.0] /Users/gyuhyeokhong/.gradle/caches/transforms-1/files-1.1/support-fragment-26.1.0.aar/9e4e8aa2aaccabde1105b370db57b1ff/AndroidManifest.xml:25:5-29:19
MERGED from [com.android.support:support-fragment:26.1.0] /Users/gyuhyeokhong/.gradle/caches/transforms-1/files-1.1/support-fragment-26.1.0.aar/9e4e8aa2aaccabde1105b370db57b1ff/AndroidManifest.xml:25:5-29:19
MERGED from [com.android.support:support-core-utils:26.1.0] /Users/gyuhyeokhong/.gradle/caches/transforms-1/files-1.1/support-core-utils-26.1.0.aar/eaf929dac5522228ff8a5e8a32ac59ff/AndroidManifest.xml:25:5-29:19
MERGED from [com.android.support:support-core-utils:26.1.0] /Users/gyuhyeokhong/.gradle/caches/transforms-1/files-1.1/support-core-utils-26.1.0.aar/eaf929dac5522228ff8a5e8a32ac59ff/AndroidManifest.xml:25:5-29:19
MERGED from [com.android.support:support-core-ui:26.1.0] /Users/gyuhyeokhong/.gradle/caches/transforms-1/files-1.1/support-core-ui-26.1.0.aar/59f26f0ffca0d2731ca1f55877bdb635/AndroidManifest.xml:25:5-29:19
MERGED from [com.android.support:support-core-ui:26.1.0] /Users/gyuhyeokhong/.gradle/caches/transforms-1/files-1.1/support-core-ui-26.1.0.aar/59f26f0ffca0d2731ca1f55877bdb635/AndroidManifest.xml:25:5-29:19
MERGED from [com.android.support:support-compat:26.1.0] /Users/gyuhyeokhong/.gradle/caches/transforms-1/files-1.1/support-compat-26.1.0.aar/68fe778b8ebac2b17e8e8d2b65949cc2/AndroidManifest.xml:25:5-29:19
MERGED from [com.android.support:support-compat:26.1.0] /Users/gyuhyeokhong/.gradle/caches/transforms-1/files-1.1/support-compat-26.1.0.aar/68fe778b8ebac2b17e8e8d2b65949cc2/AndroidManifest.xml:25:5-29:19
MERGED from [android.arch.lifecycle:runtime:1.0.0] /Users/gyuhyeokhong/.gradle/caches/transforms-1/files-1.1/runtime-1.0.0.aar/5d75ed50bda88a6da8cfa0b4dbfa9afa/AndroidManifest.xml:24:5-28:19
MERGED from [android.arch.lifecycle:runtime:1.0.0] /Users/gyuhyeokhong/.gradle/caches/transforms-1/files-1.1/runtime-1.0.0.aar/5d75ed50bda88a6da8cfa0b4dbfa9afa/AndroidManifest.xml:24:5-28:19
	android:supportsRtl
		ADDED from [keona_platerecoglib.aar] /Users/gyuhyeokhong/.gradle/caches/transforms-1/files-1.1/keona_platerecoglib.aar/cb91620d024785680ecbbbf4b5752400/AndroidManifest.xml:16:9-35
	android:label
		ADDED from /Users/gyuhyeokhong/Documents/source/git/pms/pms_gapyeong/app/src/main/AndroidManifest.xml:29:9-41
	tools:ignore
		ADDED from /Users/gyuhyeokhong/Documents/source/git/pms/pms_gapyeong/app/src/main/AndroidManifest.xml:32:9-48
	android:largeHeap
		ADDED from /Users/gyuhyeokhong/Documents/source/git/pms/pms_gapyeong/app/src/main/AndroidManifest.xml:30:9-33
	android:icon
		ADDED from /Users/gyuhyeokhong/Documents/source/git/pms/pms_gapyeong/app/src/main/AndroidManifest.xml:28:9-38
	android:allowBackup
		ADDED from /Users/gyuhyeokhong/Documents/source/git/pms/pms_gapyeong/app/src/main/AndroidManifest.xml:27:9-35
	android:theme
		ADDED from /Users/gyuhyeokhong/Documents/source/git/pms/pms_gapyeong/app/src/main/AndroidManifest.xml:31:9-46
	android:usesCleartextTraffic
		ADDED from /Users/gyuhyeokhong/Documents/source/git/pms/pms_gapyeong/app/src/main/AndroidManifest.xml:33:9-44
uses-library#org.apache.http.legacy
ADDED from /Users/gyuhyeokhong/Documents/source/git/pms/pms_gapyeong/app/src/main/AndroidManifest.xml:35:9-37:40
	android:required
		ADDED from /Users/gyuhyeokhong/Documents/source/git/pms/pms_gapyeong/app/src/main/AndroidManifest.xml:37:13-37
	android:name
		ADDED from /Users/gyuhyeokhong/Documents/source/git/pms/pms_gapyeong/app/src/main/AndroidManifest.xml:36:13-50
activity#com.pms.gapyeong.activity.IntroActivity
ADDED from /Users/gyuhyeokhong/Documents/source/git/pms/pms_gapyeong/app/src/main/AndroidManifest.xml:39:9-45:20
	android:launchMode
		ADDED from /Users/gyuhyeokhong/Documents/source/git/pms/pms_gapyeong/app/src/main/AndroidManifest.xml:40:13-43
	android:name
		ADDED from /Users/gyuhyeokhong/Documents/source/git/pms/pms_gapyeong/app/src/main/AndroidManifest.xml:39:19-73
intent-filter#action:name:android.intent.action.MAIN+category:name:android.intent.category.LAUNCHER
ADDED from /Users/gyuhyeokhong/Documents/source/git/pms/pms_gapyeong/app/src/main/AndroidManifest.xml:41:13-44:29
action#android.intent.action.MAIN
ADDED from /Users/gyuhyeokhong/Documents/source/git/pms/pms_gapyeong/app/src/main/AndroidManifest.xml:42:17-69
	android:name
		ADDED from /Users/gyuhyeokhong/Documents/source/git/pms/pms_gapyeong/app/src/main/AndroidManifest.xml:42:25-66
category#android.intent.category.LAUNCHER
ADDED from /Users/gyuhyeokhong/Documents/source/git/pms/pms_gapyeong/app/src/main/AndroidManifest.xml:43:17-77
	android:name
		ADDED from /Users/gyuhyeokhong/Documents/source/git/pms/pms_gapyeong/app/src/main/AndroidManifest.xml:43:27-74
activity#com.pms.gapyeong.activity.LoginActivity
ADDED from /Users/gyuhyeokhong/Documents/source/git/pms/pms_gapyeong/app/src/main/AndroidManifest.xml:48:9-50:52
	android:screenOrientation
		ADDED from /Users/gyuhyeokhong/Documents/source/git/pms/pms_gapyeong/app/src/main/AndroidManifest.xml:50:13-49
	android:name
		ADDED from /Users/gyuhyeokhong/Documents/source/git/pms/pms_gapyeong/app/src/main/AndroidManifest.xml:49:13-67
activity#com.pms.gapyeong.activity.MainActivity
ADDED from /Users/gyuhyeokhong/Documents/source/git/pms/pms_gapyeong/app/src/main/AndroidManifest.xml:53:9-55:52
	android:screenOrientation
		ADDED from /Users/gyuhyeokhong/Documents/source/git/pms/pms_gapyeong/app/src/main/AndroidManifest.xml:55:13-49
	android:name
		ADDED from /Users/gyuhyeokhong/Documents/source/git/pms/pms_gapyeong/app/src/main/AndroidManifest.xml:54:13-66
activity#com.pms.gapyeong.activity.WorkImageActivity
ADDED from /Users/gyuhyeokhong/Documents/source/git/pms/pms_gapyeong/app/src/main/AndroidManifest.xml:58:9-61:52
	android:screenOrientation
		ADDED from /Users/gyuhyeokhong/Documents/source/git/pms/pms_gapyeong/app/src/main/AndroidManifest.xml:61:13-49
	android:configChanges
		ADDED from /Users/gyuhyeokhong/Documents/source/git/pms/pms_gapyeong/app/src/main/AndroidManifest.xml:60:13-74
	android:name
		ADDED from /Users/gyuhyeokhong/Documents/source/git/pms/pms_gapyeong/app/src/main/AndroidManifest.xml:59:13-71
activity#com.pms.gapyeong.activity.AutoCarNumberActivity
ADDED from /Users/gyuhyeokhong/Documents/source/git/pms/pms_gapyeong/app/src/main/AndroidManifest.xml:64:9-67:48
	android:screenOrientation
		ADDED from /Users/gyuhyeokhong/Documents/source/git/pms/pms_gapyeong/app/src/main/AndroidManifest.xml:67:13-45
	android:configChanges
		ADDED from /Users/gyuhyeokhong/Documents/source/git/pms/pms_gapyeong/app/src/main/AndroidManifest.xml:66:13-89
	android:name
		ADDED from /Users/gyuhyeokhong/Documents/source/git/pms/pms_gapyeong/app/src/main/AndroidManifest.xml:65:13-75
activity#com.pms.gapyeong.activity.InputCarNumerActivity
ADDED from /Users/gyuhyeokhong/Documents/source/git/pms/pms_gapyeong/app/src/main/AndroidManifest.xml:71:9-84
	android:name
		ADDED from /Users/gyuhyeokhong/Documents/source/git/pms/pms_gapyeong/app/src/main/AndroidManifest.xml:71:19-81
activity#com.pms.gapyeong.activity.StatusBoardActivity
ADDED from /Users/gyuhyeokhong/Documents/source/git/pms/pms_gapyeong/app/src/main/AndroidManifest.xml:73:9-82
	android:name
		ADDED from /Users/gyuhyeokhong/Documents/source/git/pms/pms_gapyeong/app/src/main/AndroidManifest.xml:73:19-79
activity#com.pms.gapyeong.activity.EntranceTimeActivity
ADDED from /Users/gyuhyeokhong/Documents/source/git/pms/pms_gapyeong/app/src/main/AndroidManifest.xml:75:9-77:52
	android:screenOrientation
		ADDED from /Users/gyuhyeokhong/Documents/source/git/pms/pms_gapyeong/app/src/main/AndroidManifest.xml:77:13-49
	android:name
		ADDED from /Users/gyuhyeokhong/Documents/source/git/pms/pms_gapyeong/app/src/main/AndroidManifest.xml:76:13-74
activity#com.pms.gapyeong.activity.ExitCommitActivity
ADDED from /Users/gyuhyeokhong/Documents/source/git/pms/pms_gapyeong/app/src/main/AndroidManifest.xml:79:9-81:52
	android:screenOrientation
		ADDED from /Users/gyuhyeokhong/Documents/source/git/pms/pms_gapyeong/app/src/main/AndroidManifest.xml:81:13-49
	android:name
		ADDED from /Users/gyuhyeokhong/Documents/source/git/pms/pms_gapyeong/app/src/main/AndroidManifest.xml:80:13-72
activity#com.pms.gapyeong.activity.CarPictureViewActivity
ADDED from /Users/gyuhyeokhong/Documents/source/git/pms/pms_gapyeong/app/src/main/AndroidManifest.xml:85:9-87:77
	android:configChanges
		ADDED from /Users/gyuhyeokhong/Documents/source/git/pms/pms_gapyeong/app/src/main/AndroidManifest.xml:87:13-74
	android:name
		ADDED from /Users/gyuhyeokhong/Documents/source/git/pms/pms_gapyeong/app/src/main/AndroidManifest.xml:86:13-76
activity#com.pms.gapyeong.activity.CarPictureViewDetailActivity
ADDED from /Users/gyuhyeokhong/Documents/source/git/pms/pms_gapyeong/app/src/main/AndroidManifest.xml:89:9-91:77
	android:configChanges
		ADDED from /Users/gyuhyeokhong/Documents/source/git/pms/pms_gapyeong/app/src/main/AndroidManifest.xml:91:13-74
	android:name
		ADDED from /Users/gyuhyeokhong/Documents/source/git/pms/pms_gapyeong/app/src/main/AndroidManifest.xml:90:13-82
activity#com.pms.gapyeong.activity.ExitManageActivity
ADDED from /Users/gyuhyeokhong/Documents/source/git/pms/pms_gapyeong/app/src/main/AndroidManifest.xml:95:9-81
	android:name
		ADDED from /Users/gyuhyeokhong/Documents/source/git/pms/pms_gapyeong/app/src/main/AndroidManifest.xml:95:19-78
activity#com.pms.gapyeong.activity.ExitInfoActivity
ADDED from /Users/gyuhyeokhong/Documents/source/git/pms/pms_gapyeong/app/src/main/AndroidManifest.xml:97:9-99:52
	android:screenOrientation
		ADDED from /Users/gyuhyeokhong/Documents/source/git/pms/pms_gapyeong/app/src/main/AndroidManifest.xml:99:13-49
	android:name
		ADDED from /Users/gyuhyeokhong/Documents/source/git/pms/pms_gapyeong/app/src/main/AndroidManifest.xml:98:13-70
activity#com.pms.gapyeong.activity.EntranceInfoActivity
ADDED from /Users/gyuhyeokhong/Documents/source/git/pms/pms_gapyeong/app/src/main/AndroidManifest.xml:101:9-103:52
	android:screenOrientation
		ADDED from /Users/gyuhyeokhong/Documents/source/git/pms/pms_gapyeong/app/src/main/AndroidManifest.xml:103:13-49
	android:name
		ADDED from /Users/gyuhyeokhong/Documents/source/git/pms/pms_gapyeong/app/src/main/AndroidManifest.xml:102:13-74
activity#com.pms.gapyeong.activity.UnpaidManagerActivity
ADDED from /Users/gyuhyeokhong/Documents/source/git/pms/pms_gapyeong/app/src/main/AndroidManifest.xml:107:9-84
	android:name
		ADDED from /Users/gyuhyeokhong/Documents/source/git/pms/pms_gapyeong/app/src/main/AndroidManifest.xml:107:19-81
activity#com.pms.gapyeong.activity.UnpaidInfoActivity
ADDED from /Users/gyuhyeokhong/Documents/source/git/pms/pms_gapyeong/app/src/main/AndroidManifest.xml:109:9-111:52
	android:screenOrientation
		ADDED from /Users/gyuhyeokhong/Documents/source/git/pms/pms_gapyeong/app/src/main/AndroidManifest.xml:111:13-49
	android:name
		ADDED from /Users/gyuhyeokhong/Documents/source/git/pms/pms_gapyeong/app/src/main/AndroidManifest.xml:110:13-72
activity#com.pms.gapyeong.activity.TicketManageActivity
ADDED from /Users/gyuhyeokhong/Documents/source/git/pms/pms_gapyeong/app/src/main/AndroidManifest.xml:114:9-83
	android:name
		ADDED from /Users/gyuhyeokhong/Documents/source/git/pms/pms_gapyeong/app/src/main/AndroidManifest.xml:114:19-80
activity#com.pms.gapyeong.activity.TicketSignActivity
ADDED from /Users/gyuhyeokhong/Documents/source/git/pms/pms_gapyeong/app/src/main/AndroidManifest.xml:116:9-118:52
	android:screenOrientation
		ADDED from /Users/gyuhyeokhong/Documents/source/git/pms/pms_gapyeong/app/src/main/AndroidManifest.xml:118:13-49
	android:name
		ADDED from /Users/gyuhyeokhong/Documents/source/git/pms/pms_gapyeong/app/src/main/AndroidManifest.xml:117:13-72
activity#com.pms.gapyeong.activity.TicketDetailActivity
ADDED from /Users/gyuhyeokhong/Documents/source/git/pms/pms_gapyeong/app/src/main/AndroidManifest.xml:120:9-83
	android:name
		ADDED from /Users/gyuhyeokhong/Documents/source/git/pms/pms_gapyeong/app/src/main/AndroidManifest.xml:120:19-80
activity#com.pms.gapyeong.activity.TicketPictureViewActivity
ADDED from /Users/gyuhyeokhong/Documents/source/git/pms/pms_gapyeong/app/src/main/AndroidManifest.xml:122:9-124:77
	android:configChanges
		ADDED from /Users/gyuhyeokhong/Documents/source/git/pms/pms_gapyeong/app/src/main/AndroidManifest.xml:124:13-74
	android:name
		ADDED from /Users/gyuhyeokhong/Documents/source/git/pms/pms_gapyeong/app/src/main/AndroidManifest.xml:123:13-79
activity#com.pms.gapyeong.activity.CloseManageActivity
ADDED from /Users/gyuhyeokhong/Documents/source/git/pms/pms_gapyeong/app/src/main/AndroidManifest.xml:128:9-82
	android:name
		ADDED from /Users/gyuhyeokhong/Documents/source/git/pms/pms_gapyeong/app/src/main/AndroidManifest.xml:128:19-79
activity#com.pms.gapyeong.printer.BluetoothDeviceListActivity
ADDED from /Users/gyuhyeokhong/Documents/source/git/pms/pms_gapyeong/app/src/main/AndroidManifest.xml:132:9-134:70
	android:theme
		ADDED from /Users/gyuhyeokhong/Documents/source/git/pms/pms_gapyeong/app/src/main/AndroidManifest.xml:134:13-67
	android:name
		ADDED from /Users/gyuhyeokhong/Documents/source/git/pms/pms_gapyeong/app/src/main/AndroidManifest.xml:133:13-80
activity#com.pms.gapyeong.printer.BluetoothActivity
ADDED from /Users/gyuhyeokhong/Documents/source/git/pms/pms_gapyeong/app/src/main/AndroidManifest.xml:136:9-79
	android:name
		ADDED from /Users/gyuhyeokhong/Documents/source/git/pms/pms_gapyeong/app/src/main/AndroidManifest.xml:136:19-76
activity#com.pms.gapyeong.pay.PayActivity
ADDED from /Users/gyuhyeokhong/Documents/source/git/pms/pms_gapyeong/app/src/main/AndroidManifest.xml:140:9-142:70
	android:theme
		ADDED from /Users/gyuhyeokhong/Documents/source/git/pms/pms_gapyeong/app/src/main/AndroidManifest.xml:142:13-67
	android:name
		ADDED from /Users/gyuhyeokhong/Documents/source/git/pms/pms_gapyeong/app/src/main/AndroidManifest.xml:141:13-60
activity#com.pms.gapyeong.pay.McPayActivity
ADDED from /Users/gyuhyeokhong/Documents/source/git/pms/pms_gapyeong/app/src/main/AndroidManifest.xml:145:9-147:79
	android:theme
		ADDED from /Users/gyuhyeokhong/Documents/source/git/pms/pms_gapyeong/app/src/main/AndroidManifest.xml:147:13-67
	android:name
		ADDED from /Users/gyuhyeokhong/Documents/source/git/pms/pms_gapyeong/app/src/main/AndroidManifest.xml:146:13-62
activity#com.pms.gapyeong.pay.ReturnMcPayOn
ADDED from /Users/gyuhyeokhong/Documents/source/git/pms/pms_gapyeong/app/src/main/AndroidManifest.xml:150:9-156:20
	android:screenOrientation
		ADDED from /Users/gyuhyeokhong/Documents/source/git/pms/pms_gapyeong/app/src/main/AndroidManifest.xml:152:13-49
	android:name
		ADDED from /Users/gyuhyeokhong/Documents/source/git/pms/pms_gapyeong/app/src/main/AndroidManifest.xml:151:13-62
intent-filter#action:name:android.intent.action.MAIN
ADDED from /Users/gyuhyeokhong/Documents/source/git/pms/pms_gapyeong/app/src/main/AndroidManifest.xml:153:13-155:29
activity#com.pms.gapyeong.update.view.DownLoadDialog
ADDED from /Users/gyuhyeokhong/Documents/source/git/pms/pms_gapyeong/app/src/main/AndroidManifest.xml:157:9-159:56
	android:theme
		ADDED from /Users/gyuhyeokhong/Documents/source/git/pms/pms_gapyeong/app/src/main/AndroidManifest.xml:159:13-53
	android:name
		ADDED from /Users/gyuhyeokhong/Documents/source/git/pms/pms_gapyeong/app/src/main/AndroidManifest.xml:158:13-71
activity#com.pms.gapyeong.update.view.UpdateDialog
ADDED from /Users/gyuhyeokhong/Documents/source/git/pms/pms_gapyeong/app/src/main/AndroidManifest.xml:160:9-162:56
	android:theme
		ADDED from /Users/gyuhyeokhong/Documents/source/git/pms/pms_gapyeong/app/src/main/AndroidManifest.xml:162:13-53
	android:name
		ADDED from /Users/gyuhyeokhong/Documents/source/git/pms/pms_gapyeong/app/src/main/AndroidManifest.xml:161:13-69
uses-sdk
INJECTED from /Users/gyuhyeokhong/Documents/source/git/pms/pms_gapyeong/app/src/main/AndroidManifest.xml reason: use-sdk injection requested
INJECTED from /Users/gyuhyeokhong/Documents/source/git/pms/pms_gapyeong/app/src/main/AndroidManifest.xml
INJECTED from /Users/gyuhyeokhong/Documents/source/git/pms/pms_gapyeong/app/src/main/AndroidManifest.xml
MERGED from [keona_platerecoglib.aar] /Users/gyuhyeokhong/.gradle/caches/transforms-1/files-1.1/keona_platerecoglib.aar/cb91620d024785680ecbbbf4b5752400/AndroidManifest.xml:7:5-9:41
MERGED from [keona_platerecoglib.aar] /Users/gyuhyeokhong/.gradle/caches/transforms-1/files-1.1/keona_platerecoglib.aar/cb91620d024785680ecbbbf4b5752400/AndroidManifest.xml:7:5-9:41
MERGED from [com.android.support:design:26.1.0] /Users/gyuhyeokhong/.gradle/caches/transforms-1/files-1.1/design-26.1.0.aar/5a98cab10971ae94821d54219f5ba588/AndroidManifest.xml:21:5-23:62
MERGED from [com.android.support:design:26.1.0] /Users/gyuhyeokhong/.gradle/caches/transforms-1/files-1.1/design-26.1.0.aar/5a98cab10971ae94821d54219f5ba588/AndroidManifest.xml:21:5-23:62
MERGED from [gun0912.ted:tedpermission:2.2.2] /Users/gyuhyeokhong/.gradle/caches/transforms-1/files-1.1/tedpermission-2.2.2.aar/f0d5a2cbd1b5ac688ad8b4a0a4d60907/AndroidManifest.xml:5:5-7:41
MERGED from [gun0912.ted:tedpermission:2.2.2] /Users/gyuhyeokhong/.gradle/caches/transforms-1/files-1.1/tedpermission-2.2.2.aar/f0d5a2cbd1b5ac688ad8b4a0a4d60907/AndroidManifest.xml:5:5-7:41
MERGED from [com.android.support:appcompat-v7:26.1.0] /Users/gyuhyeokhong/.gradle/caches/transforms-1/files-1.1/appcompat-v7-26.1.0.aar/b35ce678baf6b664d5b51ddb5262606d/AndroidManifest.xml:21:5-23:78
MERGED from [com.android.support:appcompat-v7:26.1.0] /Users/gyuhyeokhong/.gradle/caches/transforms-1/files-1.1/appcompat-v7-26.1.0.aar/b35ce678baf6b664d5b51ddb5262606d/AndroidManifest.xml:21:5-23:78
MERGED from [com.android.support:animated-vector-drawable:26.1.0] /Users/gyuhyeokhong/.gradle/caches/transforms-1/files-1.1/animated-vector-drawable-26.1.0.aar/00887c80658c6a50e4129d99c9a4a69b/AndroidManifest.xml:20:5-44
MERGED from [com.android.support:animated-vector-drawable:26.1.0] /Users/gyuhyeokhong/.gradle/caches/transforms-1/files-1.1/animated-vector-drawable-26.1.0.aar/00887c80658c6a50e4129d99c9a4a69b/AndroidManifest.xml:20:5-44
MERGED from [com.android.support:support-vector-drawable:26.1.0] /Users/gyuhyeokhong/.gradle/caches/transforms-1/files-1.1/support-vector-drawable-26.1.0.aar/4ff2b1520e0a36b910961f056679e95b/AndroidManifest.xml:20:5-44
MERGED from [com.android.support:support-vector-drawable:26.1.0] /Users/gyuhyeokhong/.gradle/caches/transforms-1/files-1.1/support-vector-drawable-26.1.0.aar/4ff2b1520e0a36b910961f056679e95b/AndroidManifest.xml:20:5-44
MERGED from [com.android.support:recyclerview-v7:26.1.0] /Users/gyuhyeokhong/.gradle/caches/transforms-1/files-1.1/recyclerview-v7-26.1.0.aar/515c04573d77dc5581872137c2bc7f86/AndroidManifest.xml:20:5-44
MERGED from [com.android.support:recyclerview-v7:26.1.0] /Users/gyuhyeokhong/.gradle/caches/transforms-1/files-1.1/recyclerview-v7-26.1.0.aar/515c04573d77dc5581872137c2bc7f86/AndroidManifest.xml:20:5-44
MERGED from [com.android.support:transition:26.1.0] /Users/gyuhyeokhong/.gradle/caches/transforms-1/files-1.1/transition-26.1.0.aar/c6ee451d289c6205149413aa822e8c16/AndroidManifest.xml:20:5-44
MERGED from [com.android.support:transition:26.1.0] /Users/gyuhyeokhong/.gradle/caches/transforms-1/files-1.1/transition-26.1.0.aar/c6ee451d289c6205149413aa822e8c16/AndroidManifest.xml:20:5-44
MERGED from [com.android.support:support-v4:26.1.0] /Users/gyuhyeokhong/.gradle/caches/transforms-1/files-1.1/support-v4-26.1.0.aar/5acf7bad9d5fef84547104a6cf74daf5/AndroidManifest.xml:21:5-23:54
MERGED from [com.android.support:support-v4:26.1.0] /Users/gyuhyeokhong/.gradle/caches/transforms-1/files-1.1/support-v4-26.1.0.aar/5acf7bad9d5fef84547104a6cf74daf5/AndroidManifest.xml:21:5-23:54
MERGED from [com.android.support:support-media-compat:26.1.0] /Users/gyuhyeokhong/.gradle/caches/transforms-1/files-1.1/support-media-compat-26.1.0.aar/1bd6291fe87df21407d596554aba9d36/AndroidManifest.xml:21:5-23:63
MERGED from [com.android.support:support-media-compat:26.1.0] /Users/gyuhyeokhong/.gradle/caches/transforms-1/files-1.1/support-media-compat-26.1.0.aar/1bd6291fe87df21407d596554aba9d36/AndroidManifest.xml:21:5-23:63
MERGED from [com.android.support:support-fragment:26.1.0] /Users/gyuhyeokhong/.gradle/caches/transforms-1/files-1.1/support-fragment-26.1.0.aar/9e4e8aa2aaccabde1105b370db57b1ff/AndroidManifest.xml:21:5-23:60
MERGED from [com.android.support:support-fragment:26.1.0] /Users/gyuhyeokhong/.gradle/caches/transforms-1/files-1.1/support-fragment-26.1.0.aar/9e4e8aa2aaccabde1105b370db57b1ff/AndroidManifest.xml:21:5-23:60
MERGED from [com.android.support:support-core-utils:26.1.0] /Users/gyuhyeokhong/.gradle/caches/transforms-1/files-1.1/support-core-utils-26.1.0.aar/eaf929dac5522228ff8a5e8a32ac59ff/AndroidManifest.xml:21:5-23:61
MERGED from [com.android.support:support-core-utils:26.1.0] /Users/gyuhyeokhong/.gradle/caches/transforms-1/files-1.1/support-core-utils-26.1.0.aar/eaf929dac5522228ff8a5e8a32ac59ff/AndroidManifest.xml:21:5-23:61
MERGED from [com.android.support:support-core-ui:26.1.0] /Users/gyuhyeokhong/.gradle/caches/transforms-1/files-1.1/support-core-ui-26.1.0.aar/59f26f0ffca0d2731ca1f55877bdb635/AndroidManifest.xml:21:5-23:58
MERGED from [com.android.support:support-core-ui:26.1.0] /Users/gyuhyeokhong/.gradle/caches/transforms-1/files-1.1/support-core-ui-26.1.0.aar/59f26f0ffca0d2731ca1f55877bdb635/AndroidManifest.xml:21:5-23:58
MERGED from [com.android.support:support-compat:26.1.0] /Users/gyuhyeokhong/.gradle/caches/transforms-1/files-1.1/support-compat-26.1.0.aar/68fe778b8ebac2b17e8e8d2b65949cc2/AndroidManifest.xml:21:5-23:58
MERGED from [com.android.support:support-compat:26.1.0] /Users/gyuhyeokhong/.gradle/caches/transforms-1/files-1.1/support-compat-26.1.0.aar/68fe778b8ebac2b17e8e8d2b65949cc2/AndroidManifest.xml:21:5-23:58
MERGED from [android.arch.lifecycle:runtime:1.0.0] /Users/gyuhyeokhong/.gradle/caches/transforms-1/files-1.1/runtime-1.0.0.aar/5d75ed50bda88a6da8cfa0b4dbfa9afa/AndroidManifest.xml:20:5-22:41
MERGED from [android.arch.lifecycle:runtime:1.0.0] /Users/gyuhyeokhong/.gradle/caches/transforms-1/files-1.1/runtime-1.0.0.aar/5d75ed50bda88a6da8cfa0b4dbfa9afa/AndroidManifest.xml:20:5-22:41
INJECTED from /Users/gyuhyeokhong/Documents/source/git/pms/pms_gapyeong/app/src/main/AndroidManifest.xml
INJECTED from /Users/gyuhyeokhong/Documents/source/git/pms/pms_gapyeong/app/src/main/AndroidManifest.xml
	tools:overrideLibrary
		ADDED from [com.android.support:design:26.1.0] /Users/gyuhyeokhong/.gradle/caches/transforms-1/files-1.1/design-26.1.0.aar/5a98cab10971ae94821d54219f5ba588/AndroidManifest.xml:23:9-59
	android:targetSdkVersion
		INJECTED from /Users/gyuhyeokhong/Documents/source/git/pms/pms_gapyeong/app/src/main/AndroidManifest.xml
		ADDED from /Users/gyuhyeokhong/Documents/source/git/pms/pms_gapyeong/app/src/main/AndroidManifest.xml
		INJECTED from /Users/gyuhyeokhong/Documents/source/git/pms/pms_gapyeong/app/src/main/AndroidManifest.xml
	android:minSdkVersion
		INJECTED from /Users/gyuhyeokhong/Documents/source/git/pms/pms_gapyeong/app/src/main/AndroidManifest.xml
		ADDED from /Users/gyuhyeokhong/Documents/source/git/pms/pms_gapyeong/app/src/main/AndroidManifest.xml
		INJECTED from /Users/gyuhyeokhong/Documents/source/git/pms/pms_gapyeong/app/src/main/AndroidManifest.xml
meta-data#android.support.FILE_PROVIDER_PATHS
ADDED from /Users/gyuhyeokhong/Documents/source/git/pms/pms_gapyeong/app/src/main/AndroidManifest.xml:170:13-172:58
	android:resource
		ADDED from /Users/gyuhyeokhong/Documents/source/git/pms/pms_gapyeong/app/src/main/AndroidManifest.xml:172:17-55
	android:name
		ADDED from /Users/gyuhyeokhong/Documents/source/git/pms/pms_gapyeong/app/src/main/AndroidManifest.xml:171:17-67
meta-data#android.support.VERSION
ADDED from [com.android.support:design:26.1.0] /Users/gyuhyeokhong/.gradle/caches/transforms-1/files-1.1/design-26.1.0.aar/5a98cab10971ae94821d54219f5ba588/AndroidManifest.xml:26:9-28:38
MERGED from [com.android.support:appcompat-v7:26.1.0] /Users/gyuhyeokhong/.gradle/caches/transforms-1/files-1.1/appcompat-v7-26.1.0.aar/b35ce678baf6b664d5b51ddb5262606d/AndroidManifest.xml:26:9-28:38
MERGED from [com.android.support:appcompat-v7:26.1.0] /Users/gyuhyeokhong/.gradle/caches/transforms-1/files-1.1/appcompat-v7-26.1.0.aar/b35ce678baf6b664d5b51ddb5262606d/AndroidManifest.xml:26:9-28:38
MERGED from [com.android.support:animated-vector-drawable:26.1.0] /Users/gyuhyeokhong/.gradle/caches/transforms-1/files-1.1/animated-vector-drawable-26.1.0.aar/00887c80658c6a50e4129d99c9a4a69b/AndroidManifest.xml:23:9-25:38
MERGED from [com.android.support:animated-vector-drawable:26.1.0] /Users/gyuhyeokhong/.gradle/caches/transforms-1/files-1.1/animated-vector-drawable-26.1.0.aar/00887c80658c6a50e4129d99c9a4a69b/AndroidManifest.xml:23:9-25:38
MERGED from [com.android.support:support-vector-drawable:26.1.0] /Users/gyuhyeokhong/.gradle/caches/transforms-1/files-1.1/support-vector-drawable-26.1.0.aar/4ff2b1520e0a36b910961f056679e95b/AndroidManifest.xml:23:9-25:38
MERGED from [com.android.support:support-vector-drawable:26.1.0] /Users/gyuhyeokhong/.gradle/caches/transforms-1/files-1.1/support-vector-drawable-26.1.0.aar/4ff2b1520e0a36b910961f056679e95b/AndroidManifest.xml:23:9-25:38
MERGED from [com.android.support:recyclerview-v7:26.1.0] /Users/gyuhyeokhong/.gradle/caches/transforms-1/files-1.1/recyclerview-v7-26.1.0.aar/515c04573d77dc5581872137c2bc7f86/AndroidManifest.xml:23:9-25:38
MERGED from [com.android.support:recyclerview-v7:26.1.0] /Users/gyuhyeokhong/.gradle/caches/transforms-1/files-1.1/recyclerview-v7-26.1.0.aar/515c04573d77dc5581872137c2bc7f86/AndroidManifest.xml:23:9-25:38
MERGED from [com.android.support:transition:26.1.0] /Users/gyuhyeokhong/.gradle/caches/transforms-1/files-1.1/transition-26.1.0.aar/c6ee451d289c6205149413aa822e8c16/AndroidManifest.xml:23:9-25:38
MERGED from [com.android.support:transition:26.1.0] /Users/gyuhyeokhong/.gradle/caches/transforms-1/files-1.1/transition-26.1.0.aar/c6ee451d289c6205149413aa822e8c16/AndroidManifest.xml:23:9-25:38
MERGED from [com.android.support:support-v4:26.1.0] /Users/gyuhyeokhong/.gradle/caches/transforms-1/files-1.1/support-v4-26.1.0.aar/5acf7bad9d5fef84547104a6cf74daf5/AndroidManifest.xml:26:9-28:38
MERGED from [com.android.support:support-v4:26.1.0] /Users/gyuhyeokhong/.gradle/caches/transforms-1/files-1.1/support-v4-26.1.0.aar/5acf7bad9d5fef84547104a6cf74daf5/AndroidManifest.xml:26:9-28:38
MERGED from [com.android.support:support-media-compat:26.1.0] /Users/gyuhyeokhong/.gradle/caches/transforms-1/files-1.1/support-media-compat-26.1.0.aar/1bd6291fe87df21407d596554aba9d36/AndroidManifest.xml:26:9-28:38
MERGED from [com.android.support:support-media-compat:26.1.0] /Users/gyuhyeokhong/.gradle/caches/transforms-1/files-1.1/support-media-compat-26.1.0.aar/1bd6291fe87df21407d596554aba9d36/AndroidManifest.xml:26:9-28:38
MERGED from [com.android.support:support-fragment:26.1.0] /Users/gyuhyeokhong/.gradle/caches/transforms-1/files-1.1/support-fragment-26.1.0.aar/9e4e8aa2aaccabde1105b370db57b1ff/AndroidManifest.xml:26:9-28:38
MERGED from [com.android.support:support-fragment:26.1.0] /Users/gyuhyeokhong/.gradle/caches/transforms-1/files-1.1/support-fragment-26.1.0.aar/9e4e8aa2aaccabde1105b370db57b1ff/AndroidManifest.xml:26:9-28:38
MERGED from [com.android.support:support-core-utils:26.1.0] /Users/gyuhyeokhong/.gradle/caches/transforms-1/files-1.1/support-core-utils-26.1.0.aar/eaf929dac5522228ff8a5e8a32ac59ff/AndroidManifest.xml:26:9-28:38
MERGED from [com.android.support:support-core-utils:26.1.0] /Users/gyuhyeokhong/.gradle/caches/transforms-1/files-1.1/support-core-utils-26.1.0.aar/eaf929dac5522228ff8a5e8a32ac59ff/AndroidManifest.xml:26:9-28:38
MERGED from [com.android.support:support-core-ui:26.1.0] /Users/gyuhyeokhong/.gradle/caches/transforms-1/files-1.1/support-core-ui-26.1.0.aar/59f26f0ffca0d2731ca1f55877bdb635/AndroidManifest.xml:26:9-28:38
MERGED from [com.android.support:support-core-ui:26.1.0] /Users/gyuhyeokhong/.gradle/caches/transforms-1/files-1.1/support-core-ui-26.1.0.aar/59f26f0ffca0d2731ca1f55877bdb635/AndroidManifest.xml:26:9-28:38
MERGED from [com.android.support:support-compat:26.1.0] /Users/gyuhyeokhong/.gradle/caches/transforms-1/files-1.1/support-compat-26.1.0.aar/68fe778b8ebac2b17e8e8d2b65949cc2/AndroidManifest.xml:26:9-28:38
MERGED from [com.android.support:support-compat:26.1.0] /Users/gyuhyeokhong/.gradle/caches/transforms-1/files-1.1/support-compat-26.1.0.aar/68fe778b8ebac2b17e8e8d2b65949cc2/AndroidManifest.xml:26:9-28:38
	android:value
		ADDED from [com.android.support:design:26.1.0] /Users/gyuhyeokhong/.gradle/caches/transforms-1/files-1.1/design-26.1.0.aar/5a98cab10971ae94821d54219f5ba588/AndroidManifest.xml:28:13-35
	android:name
		ADDED from [com.android.support:design:26.1.0] /Users/gyuhyeokhong/.gradle/caches/transforms-1/files-1.1/design-26.1.0.aar/5a98cab10971ae94821d54219f5ba588/AndroidManifest.xml:27:13-51
activity#com.gun0912.tedpermission.TedPermissionActivity
ADDED from [gun0912.ted:tedpermission:2.2.2] /Users/gyuhyeokhong/.gradle/caches/transforms-1/files-1.1/tedpermission-2.2.2.aar/f0d5a2cbd1b5ac688ad8b4a0a4d60907/AndroidManifest.xml:10:9-14:67
	android:screenOrientation
		ADDED from [gun0912.ted:tedpermission:2.2.2] /Users/gyuhyeokhong/.gradle/caches/transforms-1/files-1.1/tedpermission-2.2.2.aar/f0d5a2cbd1b5ac688ad8b4a0a4d60907/AndroidManifest.xml:13:13-52
	android:configChanges
		ADDED from [gun0912.ted:tedpermission:2.2.2] /Users/gyuhyeokhong/.gradle/caches/transforms-1/files-1.1/tedpermission-2.2.2.aar/f0d5a2cbd1b5ac688ad8b4a0a4d60907/AndroidManifest.xml:12:13-144
	android:theme
		ADDED from [gun0912.ted:tedpermission:2.2.2] /Users/gyuhyeokhong/.gradle/caches/transforms-1/files-1.1/tedpermission-2.2.2.aar/f0d5a2cbd1b5ac688ad8b4a0a4d60907/AndroidManifest.xml:14:13-64
	android:name
		ADDED from [gun0912.ted:tedpermission:2.2.2] /Users/gyuhyeokhong/.gradle/caches/transforms-1/files-1.1/tedpermission-2.2.2.aar/f0d5a2cbd1b5ac688ad8b4a0a4d60907/AndroidManifest.xml:11:13-75
meta-data#android.arch.lifecycle.VERSION
ADDED from [android.arch.lifecycle:runtime:1.0.0] /Users/gyuhyeokhong/.gradle/caches/transforms-1/files-1.1/runtime-1.0.0.aar/5d75ed50bda88a6da8cfa0b4dbfa9afa/AndroidManifest.xml:25:9-27:47
	android:value
		ADDED from [android.arch.lifecycle:runtime:1.0.0] /Users/gyuhyeokhong/.gradle/caches/transforms-1/files-1.1/runtime-1.0.0.aar/5d75ed50bda88a6da8cfa0b4dbfa9afa/AndroidManifest.xml:27:13-44
	android:name
		ADDED from [android.arch.lifecycle:runtime:1.0.0] /Users/gyuhyeokhong/.gradle/caches/transforms-1/files-1.1/runtime-1.0.0.aar/5d75ed50bda88a6da8cfa0b4dbfa9afa/AndroidManifest.xml:26:13-58
